…
What are the most often (re)occuring assets?
```{r data_count6, echo=FALSE, message=FALSE}
awards.c %>%
  dplyr::group_by(md5) %>% # md5 is 8th column
  dplyr::summarise(count = n()) %>%
  dplyr::arrange(desc(count)) %>%
  dplyr::top_n(15) %>%
  kableExtra::kable(caption="Most frequently occuring assets grouped by MD5-checksum") %>%
  kableExtra::kable_styling()

# # A tibble: 68 x 2
# md5                              asset.count
# <chr>                                  <int>
# 1 ba3eabb4e22523d8e90cef4533a3905b          13
# 2 a62e920776efa6eaca73d2d9e8ef76b5          11
# 3 37ca4e43cfdcd7ac2d28ea596867ad03           8
# 4 5d521b959dd6d11bf0d29ea4a87ee27b           6
# 5 90ac01e97a7488432c4223d185c8963c           6
# 6 a86863a30b8dbe82baddd10672a3af46           5
# 7 acb2c460e0a0fdaf6210bb3e8d3a6c6e           5
# 8 c67daf75b586757c6e632ec9fdfd6cc7           5
# 9 496543d5b5cbce0f2cf4c301ed7a6183           4
# 10 b2a3816bd00372242ae6151723c0b613           4
# # ... with 58 more rows
…
